…
    # Because the data is already tidy, choose to untidy by adding separate rows for each apartment building's separate utility meters

    (untidy <- selected_apt_buildings %>%
      pivot_longer(cols = c(separate_gas_meters, separate_hydro_meters, separate_water_meters), 
                   names_to  = "utility_meter", 
                   values_to = "utility_meter_separate"))

    ## # A tibble: 10,365 × 7
    ##       id no_of_units ward  air_conditioning heating_type utility_meter        
    ##    <dbl>       <dbl> <chr> <chr>            <chr>        <chr>                
    ##  1 10359         218 17    NONE             HOT WATER    separate_gas_meters  
    ##  2 10359         218 17    NONE             HOT WATER    separate_hydro_meters
    ##  3 10359         218 17    NONE             HOT WATER    separate_water_meters
    ##  4 10360         206 17    NONE             HOT WATER    separate_gas_meters  
    ##  5 10360         206 17    NONE             HOT WATER    separate_hydro_meters
    ##  6 10360         206 17    NONE             HOT WATER    separate_water_meters
    ##  7 10361          34 03    NONE             HOT WATER    separate_gas_meters  
    ##  8 10361          34 03    NONE             HOT WATER    separate_hydro_meters
    ##  9 10361          34 03    NONE             HOT WATER    separate_water_meters
    ## 10 10362          42 03    NONE             HOT WATER    separate_gas_meters  
    ## # … with 10,355 more rows, and 1 more variable: utility_meter_separate <chr>
…
